{
  "aws": "7f7e55ab3b247439ca384a299f57490e01580d3560765898efce9cb3d7252607",
  "kubernetes": "0edc88f979527fa9880518bc5ba37a47ba2e4508683b59664afc54e898347d05",
  "local": "c6ad4c39c17fa8cae51c9972ad20fda093cbb7b4a5ee7a0334a40fb08b47421f",
  "null": "b1d97b7013b6aaa4205bad9db8ce7ff4d6fc27d7c6ed8b2227213f3441f6208e",
  "random": "7903b3f4d7067b3e8ca2440aa4342b57286310e074a806d0f1a673034969817b",
  "template": "152f96efea9f15c8daf7a42f0e48f71ba0fc623e5abe67a03b1638f943ca745e"
}